{
  "varpID": -1,
  "varbitID": 1527,
  "id": 102,
  "rowId": 69,
  "sortName": "Hand in the Sand, The",
  "displayName": "The Hand in the Sand",
  "type": "QUEST",
  "members": true,
  "difficulty": "INTERMEDIATE",
  "length": "SHORT",
  "releaseYear": 2006,
  "startPosition": {
    "x": 2551,
    "y": 3100,
    "plane": 0
  },
  "rewardPoints": 1,
  "progressionStatus": [],
  "completionStatus": 160,
  "skillRequirements": [
    {
      "skill": "CRAFTING",
      "requirement": 49
    },
    {
      "skill": "THIEVING",
      "requirement": 17
    }
  ],
  "skillRecommendations": [],
  "questRequirements": [],
  "questPointRequirement": 0,
  "combatLevelRequirement": 0,
  "combatLevelRecommended": 0
}