{
  "varpID": -1,
  "varbitID": 2011,
  "id": 108,
  "rowId": 138,
  "sortName": "Soul's Bane, A",
  "displayName": "A Soul's Bane",
  "type": "QUEST",
  "members": true,
  "difficulty": "INTERMEDIATE",
  "length": "SHORT",
  "releaseYear": 2006,
  "startPosition": {
    "x": 3308,
    "y": 3454,
    "plane": 0
  },
  "rewardPoints": 1,
  "progressionStatus": [],
  "completionStatus": 13,
  "skillRequirements": [],
  "skillRecommendations": [],
  "questRequirements": [],
  "questPointRequirement": 0,
  "combatLevelRequirement": 0,
  "combatLevelRecommended": 30
}