{
  "varpID": 714,
  "varbitID": -1,
  "id": 109,
  "rowId": 114,
  "sortName": "Rag and Bone Man I",
  "displayName": "Rag and Bone Man I",
  "type": "QUEST",
  "members": true,
  "difficulty": "NOVICE",
  "length": "SHORT",
  "releaseYear": 2006,
  "startPosition": {
    "x": 3360,
    "y": 3506,
    "plane": 0
  },
  "rewardPoints": 1,
  "progressionStatus": [],
  "completionStatus": 4,
  "skillRequirements": [],
  "skillRecommendations": [],
  "questRequirements": [],
  "questPointRequirement": 0,
  "combatLevelRequirement": 0,
  "combatLevelRecommended": 15
}