{
  "varpID": 67,
  "varbitID": -1,
  "id": 13,
  "rowId": 161,
  "sortName": "Witch's Potion",
  "displayName": "Witch's Potion",
  "type": "QUEST",
  "members": false,
  "difficulty": "NOVICE",
  "length": "VERY_SHORT",
  "releaseYear": 2001,
  "startPosition": {
    "x": 2968,
    "y": 3205,
    "plane": 0
  },
  "rewardPoints": 1,
  "progressionStatus": [],
  "completionStatus": 3,
  "skillRequirements": [],
  "skillRecommendations": [],
  "questRequirements": [],
  "questPointRequirement": 0,
  "combatLevelRequirement": 0,
  "combatLevelRecommended": 0
}