{
  "varpID": -1,
  "varbitID": 3534,
  "id": 132,
  "rowId": 106,
  "sortName": "Olaf's Quest",
  "displayName": "Olaf's Quest",
  "type": "QUEST",
  "members": true,
  "difficulty": "INTERMEDIATE",
  "length": "SHORT",
  "releaseYear": 2007,
  "startPosition": {
    "x": 2722,
    "y": 3729,
    "plane": 0
  },
  "rewardPoints": 1,
  "progressionStatus": [],
  "completionStatus": 80,
  "skillRequirements": [
    {
      "skill": "WOODCUTTING",
      "requirement": 50
    },
    {
      "skill": "FIREMAKING",
      "requirement": 40
    },
    {
      "skill": "AGILITY",
      "requirement": 50
    }
  ],
  "skillRecommendations": [],
  "questRequirements": [
    {
      "quest": {
        "id": 64,
        "rowId": 57,
        "sortName": "Fremennik Trials, The",
        "displayName": "The Fremennik Trials",
        "type": "QUEST",
        "members": true,
        "difficulty": "INTERMEDIATE",
        "length": "MEDIUM",
        "releaseYear": 2004,
        "startPosition": {
          "x": 2658,
          "y": 3669,
          "plane": 0
        },
        "rewardPoints": 3,
        "progressionStatus": [],
        "completionStatus": 10,
        "skillRequirements": [
          {
            "skill": "CRAFTING",
            "requirement": 40
          },
          {
            "skill": "WOODCUTTING",
            "requirement": 40
          },
          {
            "skill": "FLETCHING",
            "requirement": 25
          }
        ],
        "skillRecommendations": [],
        "questRequirements": [],
        "questPointRequirement": 0,
        "combatLevelRequirement": 0,
        "combatLevelRecommended": 40
      }
    }
  ],
  "questPointRequirement": 0,
  "combatLevelRequirement": 0,
  "combatLevelRecommended": 50
}