{
  "varpID": -1,
  "varbitID": 6037,
  "id": 144,
  "rowId": 113,
  "sortName": "Queen of Thieves, The",
  "displayName": "The Queen of Thieves",
  "type": "QUEST",
  "members": true,
  "difficulty": "INTERMEDIATE",
  "length": "VERY_SHORT",
  "releaseYear": 2017,
  "startPosition": {
    "x": 1797,
    "y": 3781,
    "plane": 0
  },
  "rewardPoints": 1,
  "progressionStatus": [],
  "completionStatus": 13,
  "skillRequirements": [
    {
      "skill": "THIEVING",
      "requirement": 20
    }
  ],
  "skillRecommendations": [],
  "questRequirements": [
    {
      "quest": {
        "id": 142,
        "rowId": 13,
        "sortName": "Client of Kourend",
        "displayName": "Client of Kourend",
        "type": "QUEST",
        "members": true,
        "difficulty": "NOVICE",
        "length": "SHORT",
        "releaseYear": 2017,
        "startPosition": {
          "x": 1825,
          "y": 3690,
          "plane": 0
        },
        "rewardPoints": 1,
        "progressionStatus": [],
        "completionStatus": 7,
        "skillRequirements": [],
        "skillRecommendations": [],
        "questRequirements": [],
        "questPointRequirement": 0,
        "combatLevelRequirement": 0,
        "combatLevelRecommended": 0
      }
    }
  ],
  "questPointRequirement": 0,
  "combatLevelRequirement": 0,
  "combatLevelRecommended": 0
}