{
  "varpID": -1,
  "varbitID": 7856,
  "id": 152,
  "rowId": 3,
  "sortName": "Ascent of Arceuus, The",
  "displayName": "The Ascent of Arceuus",
  "type": "QUEST",
  "members": true,
  "difficulty": "INTERMEDIATE",
  "length": "SHORT",
  "releaseYear": 2019,
  "startPosition": {
    "x": 1699,
    "y": 3741,
    "plane": 0
  },
  "rewardPoints": 1,
  "progressionStatus": [],
  "completionStatus": 14,
  "skillRequirements": [
    {
      "skill": "HUNTER",
      "requirement": 12
    }
  ],
  "skillRecommendations": [],
  "questRequirements": [
    {
      "quest": {
        "id": 142,
        "rowId": 13,
        "sortName": "Client of Kourend",
        "displayName": "Client of Kourend",
        "type": "QUEST",
        "members": true,
        "difficulty": "NOVICE",
        "length": "SHORT",
        "releaseYear": 2017,
        "startPosition": {
          "x": 1825,
          "y": 3690,
          "plane": 0
        },
        "rewardPoints": 1,
        "progressionStatus": [],
        "completionStatus": 7,
        "skillRequirements": [],
        "skillRecommendations": [],
        "questRequirements": [],
        "questPointRequirement": 0,
        "combatLevelRequirement": 0,
        "combatLevelRecommended": 0
      }
    }
  ],
  "questPointRequirement": 0,
  "combatLevelRequirement": 0,
  "combatLevelRecommended": 15
}