{
  "varpID": -1,
  "varbitID": 1904,
  "id": 177,
  "rowId": 2313,
  "sortName": "Recipe for Disaster Uglogwee",
  "displayName": "Recipe for Disaster - Skrach Uglogwee",
  "type": "QUEST",
  "members": true,
  "difficulty": "SPECIAL",
  "length": "MEDIUM",
  "releaseYear": 2006,
  "startPosition": {
    "x": 3207,
    "y": 3214,
    "plane": 0
  },
  "rewardPoints": 1,
  "progressionStatus": [],
  "completionStatus": 170,
  "skillRequirements": [
    {
      "skill": "COOKING",
      "requirement": 41
    },
    {
      "skill": "FIREMAKING",
      "requirement": 20
    }
  ],
  "skillRecommendations": [],
  "questRequirements": [
    {
      "quest": {
        "id": 171,
        "rowId": 2307,
        "sortName": "Recipe for Disaster Another Cook's Quest",
        "displayName": "Recipe for Disaster - Another Cook's Quest",
        "type": "QUEST",
        "members": true,
        "difficulty": "SPECIAL",
        "length": "SHORT",
        "releaseYear": 2006,
        "startPosition": {
          "x": 3207,
          "y": 3214,
          "plane": 0
        },
        "rewardPoints": 1,
        "progressionStatus": [],
        "completionStatus": 2,
        "skillRequirements": [
          {
            "skill": "COOKING",
            "requirement": 10
          }
        ],
        "skillRecommendations": [],
        "questRequirements": [
          {
            "quest": {
              "id": 1,
              "rowId": 17,
              "sortName": "Cook's Assistant",
              "displayName": "Cook's Assistant",
              "type": "QUEST",
              "members": false,
              "difficulty": "NOVICE",
              "length": "VERY_SHORT",
              "releaseYear": 2001,
              "startPosition": {
                "x": 3207,
                "y": 3214,
                "plane": 0
              },
              "rewardPoints": 1,
              "progressionStatus": [],
              "completionStatus": 2,
              "skillRequirements": [],
              "skillRecommendations": [],
              "questRequirements": [],
              "questPointRequirement": 0,
              "combatLevelRequirement": 0,
              "combatLevelRecommended": 0
            }
          }
        ],
        "questPointRequirement": 0,
        "combatLevelRequirement": 0,
        "combatLevelRecommended": 0
      }
    },
    {
      "quest": {
        "id": 54,
        "rowId": 8,
        "sortName": "Big Chompy Bird Hunting",
        "displayName": "Big Chompy Bird Hunting",
        "type": "QUEST",
        "members": true,
        "difficulty": "INTERMEDIATE",
        "length": "SHORT",
        "releaseYear": 2004,
        "startPosition": {
          "x": 2629,
          "y": 2980,
          "plane": 0
        },
        "rewardPoints": 2,
        "progressionStatus": [],
        "completionStatus": 65,
        "skillRequirements": [
          {
            "skill": "RANGED",
            "requirement": 30
          },
          {
            "skill": "COOKING",
            "requirement": 30
          },
          {
            "skill": "FLETCHING",
            "requirement": 5
          }
        ],
        "skillRecommendations": [],
        "questRequirements": [],
        "questPointRequirement": 0,
        "combatLevelRequirement": 0,
        "combatLevelRecommended": 25
      }
    },
    {
      "quest": {
        "id": 50,
        "rowId": 60,
        "sortName": "Gertrude's Cat",
        "displayName": "Gertrude's Cat",
        "type": "QUEST",
        "members": true,
        "difficulty": "NOVICE",
        "length": "VERY_SHORT",
        "releaseYear": 2003,
        "startPosition": {
          "x": 3150,
          "y": 3410,
          "plane": 0
        },
        "rewardPoints": 1,
        "progressionStatus": [],
        "completionStatus": 6,
        "skillRequirements": [],
        "skillRecommendations": [],
        "questRequirements": [],
        "questPointRequirement": 0,
        "combatLevelRequirement": 0,
        "combatLevelRecommended": 0
      }
    }
  ],
  "questPointRequirement": 0,
  "combatLevelRequirement": 0,
  "combatLevelRecommended": 0
}