{
  "varpID": 226,
  "varbitID": -1,
  "id": 20,
  "rowId": 160,
  "sortName": "Witch's House",
  "displayName": "Witch's House",
  "type": "QUEST",
  "members": true,
  "difficulty": "INTERMEDIATE",
  "length": "VERY_SHORT",
  "releaseYear": 2002,
  "startPosition": {
    "x": 2927,
    "y": 3456,
    "plane": 0
  },
  "rewardPoints": 4,
  "progressionStatus": [],
  "completionStatus": 7,
  "skillRequirements": [],
  "skillRecommendations": [],
  "questRequirements": [],
  "questPointRequirement": 0,
  "combatLevelRequirement": 0,
  "combatLevelRecommended": 35
}