{
  "varpID": -1,
  "varbitID": 13714,
  "id": 23,
  "rowId": 4,
  "sortName": "Alfred Grimhand's Barcrawl",
  "displayName": "Alfred Grimhand's Barcrawl",
  "type": "MINIQUEST",
  "members": true,
  "difficulty": "NOVICE",
  "length": "MEDIUM",
  "releaseYear": 2002,
  "startPosition": {
    "x": 2543,
    "y": 3569,
    "plane": 0
  },
  "rewardPoints": 0,
  "progressionStatus": [],
  "completionStatus": 2,
  "skillRequirements": [],
  "skillRecommendations": [],
  "questRequirements": [],
  "questPointRequirement": 0,
  "combatLevelRequirement": 0,
  "combatLevelRecommended": 0
}