{
  "varpID": 200,
  "varbitID": -1,
  "id": 26,
  "rowId": 151,
  "sortName": "Tribal Totem",
  "displayName": "Tribal Totem",
  "type": "QUEST",
  "members": true,
  "difficulty": "INTERMEDIATE",
  "length": "VERY_SHORT",
  "releaseYear": 2002,
  "startPosition": {
    "x": 2792,
    "y": 3182,
    "plane": 0
  },
  "rewardPoints": 1,
  "progressionStatus": [],
  "completionStatus": 5,
  "skillRequirements": [
    {
      "skill": "THIEVING",
      "requirement": 21
    }
  ],
  "skillRecommendations": [],
  "questRequirements": [],
  "questPointRequirement": 0,
  "combatLevelRequirement": 0,
  "combatLevelRecommended": 0
}