{
  "varpID": 60,
  "varbitID": -1,
  "id": 35,
  "rowId": 130,
  "sortName": "Sheep Herder",
  "displayName": "Sheep Herder",
  "type": "QUEST",
  "members": true,
  "difficulty": "NOVICE",
  "length": "SHORT",
  "releaseYear": 2002,
  "startPosition": {
    "x": 2615,
    "y": 3299,
    "plane": 0
  },
  "rewardPoints": 4,
  "progressionStatus": [],
  "completionStatus": 3,
  "skillRequirements": [],
  "skillRecommendations": [],
  "questRequirements": [],
  "questPointRequirement": 0,
  "combatLevelRequirement": 0,
  "combatLevelRecommended": 0
}