{
  "varpID": 144,
  "varbitID": -1,
  "id": 4,
  "rowId": 121,
  "sortName": "Romeo & Juliet",
  "displayName": "Romeo & Juliet",
  "type": "QUEST",
  "members": false,
  "difficulty": "NOVICE",
  "length": "SHORT",
  "releaseYear": 2001,
  "startPosition": {
    "x": 3211,
    "y": 3423,
    "plane": 0
  },
  "rewardPoints": 5,
  "progressionStatus": [],
  "completionStatus": 100,
  "skillRequirements": [],
  "skillRecommendations": [],
  "questRequirements": [],
  "questPointRequirement": 0,
  "combatLevelRequirement": 0,
  "combatLevelRecommended": 0
}