{
  "varpID": -1,
  "varbitID": 1103,
  "id": 93,
  "rowId": 100,
  "sortName": "Mourning's End Part II",
  "displayName": "Mourning's End Part II",
  "type": "QUEST",
  "members": true,
  "difficulty": "MASTER",
  "length": "LONG",
  "releaseYear": 2005,
  "startPosition": {
    "x": 2351,
    "y": 3172,
    "plane": 0
  },
  "rewardPoints": 2,
  "progressionStatus": [],
  "completionStatus": 60,
  "skillRequirements": [
    {
      "skill": "AGILITY",
      "requirement": 65
    }
  ],
  "skillRecommendations": [],
  "questRequirements": [
    {
      "quest": {
        "id": 87,
        "rowId": 99,
        "sortName": "Mourning's End Part I",
        "displayName": "Mourning's End Part I",
        "type": "QUEST",
        "members": true,
        "difficulty": "MASTER",
        "length": "MEDIUM",
        "releaseYear": 2005,
        "startPosition": {
          "x": 2289,
          "y": 3146,
          "plane": 0
        },
        "rewardPoints": 2,
        "progressionStatus": [],
        "completionStatus": 9,
        "skillRequirements": [
          {
            "skill": "RANGED",
            "requirement": 60
          },
          {
            "skill": "THIEVING",
            "requirement": 50
          }
        ],
        "skillRecommendations": [],
        "questRequirements": [
          {
            "quest": {
              "id": 72,
              "rowId": 122,
              "sortName": "Roving Elves",
              "displayName": "Roving Elves",
              "type": "QUEST",
              "members": true,
              "difficulty": "EXPERIENCED",
              "length": "SHORT",
              "releaseYear": 2005,
              "startPosition": {
                "x": 2289,
                "y": 3146,
                "plane": 0
              },
              "rewardPoints": 1,
              "progressionStatus": [],
              "completionStatus": 6,
              "skillRequirements": [],
              "skillRecommendations": [],
              "questRequirements": [
                {
                  "quest": {
                    "id": 61,
                    "rowId": 119,
                    "sortName": "Regicide",
                    "displayName": "Regicide",
                    "type": "QUEST",
                    "members": true,
                    "difficulty": "EXPERIENCED",
                    "length": "LONG",
                    "releaseYear": 2004,
                    "startPosition": {
                      "x": 2577,
                      "y": 3293,
                      "plane": 1
                    },
                    "rewardPoints": 3,
                    "progressionStatus": [],
                    "completionStatus": 15,
                    "skillRequirements": [
                      {
                        "skill": "AGILITY",
                        "requirement": 56
                      },
                      {
                        "skill": "CRAFTING",
                        "requirement": 10
                      }
                    ],
                    "skillRecommendations": [],
                    "questRequirements": [
                      {
                        "quest": {
                          "id": 43,
                          "rowId": 154,
                          "sortName": "Underground Pass",
                          "displayName": "Underground Pass",
                          "type": "QUEST",
                          "members": true,
                          "difficulty": "EXPERIENCED",
                          "length": "LONG",
                          "releaseYear": 2003,
                          "startPosition": {
                            "x": 2577,
                            "y": 3293,
                            "plane": 1
                          },
                          "rewardPoints": 5,
                          "progressionStatus": [],
                          "completionStatus": 11,
                          "skillRequirements": [
                            {
                              "skill": "RANGED",
                              "requirement": 25
                            },
                            {
                              "skill": "AGILITY",
                              "requirement": 50
                            },
                            {
                              "skill": "THIEVING",
                              "requirement": 50
                            }
                          ],
                          "skillRecommendations": [],
                          "questRequirements": [
                            {
                              "quest": {
                                "id": 39,
                                "rowId": 9,
                                "sortName": "Biohazard",
                                "displayName": "Biohazard",
                                "type": "QUEST",
                                "members": true,
                                "difficulty": "NOVICE",
                                "length": "SHORT",
                                "releaseYear": 2002,
                                "startPosition": {
                                  "x": 2591,
                                  "y": 3336,
                                  "plane": 0
                                },
                                "rewardPoints": 3,
                                "progressionStatus": [],
                                "completionStatus": 16,
                                "skillRequirements": [],
                                "skillRecommendations": [],
                                "questRequirements": [
                                  {
                                    "quest": {
                                      "id": 36,
                                      "rowId": 109,
                                      "sortName": "Plague City",
                                      "displayName": "Plague City",
                                      "type": "QUEST",
                                      "members": true,
                                      "difficulty": "NOVICE",
                                      "length": "VERY_SHORT",
                                      "releaseYear": 2002,
                                      "startPosition": {
                                        "x": 2568,
                                        "y": 3334,
                                        "plane": 0
                                      },
                                      "rewardPoints": 1,
                                      "progressionStatus": [],
                                      "completionStatus": 29,
                                      "skillRequirements": [],
                                      "skillRecommendations": [],
                                      "questRequirements": [],
                                      "questPointRequirement": 0,
                                      "combatLevelRequirement": 0,
                                      "combatLevelRecommended": 0
                                    }
                                  }
                                ],
                                "questPointRequirement": 0,
                                "combatLevelRequirement": 0,
                                "combatLevelRecommended": 10
                              }
                            }
                          ],
                          "questPointRequirement": 0,
                          "combatLevelRequirement": 0,
                          "combatLevelRecommended": 60
                        }
                      }
                    ],
                    "questPointRequirement": 0,
                    "combatLevelRequirement": 0,
                    "combatLevelRecommended": 60
                  }
                },
                {
                  "quest": {
                    "id": 38,
                    "rowId": 158,
                    "sortName": "Waterfall Quest",
                    "displayName": "Waterfall Quest",
                    "type": "QUEST",
                    "members": true,
                    "difficulty": "INTERMEDIATE",
                    "length": "SHORT",
                    "releaseYear": 2002,
                    "startPosition": {
                      "x": 2521,
                      "y": 3496,
                      "plane": 0
                    },
                    "rewardPoints": 1,
                    "progressionStatus": [],
                    "completionStatus": 10,
                    "skillRequirements": [],
                    "skillRecommendations": [],
                    "questRequirements": [],
                    "questPointRequirement": 0,
                    "combatLevelRequirement": 0,
                    "combatLevelRecommended": 25
                  }
                }
              ],
              "questPointRequirement": 0,
              "combatLevelRequirement": 0,
              "combatLevelRecommended": 60
            }
          },
          {
            "quest": {
              "id": 54,
              "rowId": 8,
              "sortName": "Big Chompy Bird Hunting",
              "displayName": "Big Chompy Bird Hunting",
              "type": "QUEST",
              "members": true,
              "difficulty": "INTERMEDIATE",
              "length": "SHORT",
              "releaseYear": 2004,
              "startPosition": {
                "x": 2629,
                "y": 2980,
                "plane": 0
              },
              "rewardPoints": 2,
              "progressionStatus": [],
              "completionStatus": 65,
              "skillRequirements": [
                {
                  "skill": "RANGED",
                  "requirement": 30
                },
                {
                  "skill": "COOKING",
                  "requirement": 30
                },
                {
                  "skill": "FLETCHING",
                  "requirement": 5
                }
              ],
              "skillRecommendations": [],
              "questRequirements": [],
              "questPointRequirement": 0,
              "combatLevelRequirement": 0,
              "combatLevelRecommended": 25
            }
          },
          {
            "quest": {
              "id": 35,
              "rowId": 130,
              "sortName": "Sheep Herder",
              "displayName": "Sheep Herder",
              "type": "QUEST",
              "members": true,
              "difficulty": "NOVICE",
              "length": "SHORT",
              "releaseYear": 2002,
              "startPosition": {
                "x": 2615,
                "y": 3299,
                "plane": 0
              },
              "rewardPoints": 4,
              "progressionStatus": [],
              "completionStatus": 3,
              "skillRequirements": [],
              "skillRecommendations": [],
              "questRequirements": [],
              "questPointRequirement": 0,
              "combatLevelRequirement": 0,
              "combatLevelRecommended": 0
            }
          }
        ],
        "questPointRequirement": 0,
        "combatLevelRequirement": 0,
        "combatLevelRecommended": 60
      }
    }
  ],
  "questPointRequirement": 0,
  "combatLevelRequirement": 0,
  "combatLevelRecommended": 65
}