{
  "varpID": -1,
  "varbitID": 1404,
  "id": 99,
  "rowId": 116,
  "sortName": "Ratcatchers",
  "displayName": "Ratcatchers",
  "type": "QUEST",
  "members": true,
  "difficulty": "INTERMEDIATE",
  "length": "MEDIUM",
  "releaseYear": 2005,
  "startPosition": {
    "x": 3150,
    "y": 3410,
    "plane": 0
  },
  "rewardPoints": 2,
  "progressionStatus": [],
  "completionStatus": 127,
  "skillRequirements": [],
  "skillRecommendations": [],
  "questRequirements": [
    {
      "quest": {
        "id": 80,
        "rowId": 75,
        "sortName": "Icthlarin's Little Helper",
        "displayName": "Icthlarin's Little Helper",
        "type": "QUEST",
        "members": true,
        "difficulty": "INTERMEDIATE",
        "length": "MEDIUM",
        "releaseYear": 2005,
        "startPosition": {
          "x": 3316,
          "y": 2849,
          "plane": 0
        },
        "rewardPoints": 2,
        "progressionStatus": [],
        "completionStatus": 26,
        "skillRequirements": [
          {
            "skill": "AGILITY",
            "requirement": 40
          }
        ],
        "skillRecommendations": [],
        "questRequirements": [
          {
            "quest": {
              "id": 50,
              "rowId": 60,
              "sortName": "Gertrude's Cat",
              "displayName": "Gertrude's Cat",
              "type": "QUEST",
              "members": true,
              "difficulty": "NOVICE",
              "length": "VERY_SHORT",
              "releaseYear": 2003,
              "startPosition": {
                "x": 3150,
                "y": 3410,
                "plane": 0
              },
              "rewardPoints": 1,
              "progressionStatus": [],
              "completionStatus": 6,
              "skillRequirements": [],
              "skillRecommendations": [],
              "questRequirements": [],
              "questPointRequirement": 0,
              "combatLevelRequirement": 0,
              "combatLevelRecommended": 0
            }
          }
        ],
        "questPointRequirement": 0,
        "combatLevelRequirement": 0,
        "combatLevelRecommended": 50
      }
    }
  ],
  "questPointRequirement": 0,
  "combatLevelRequirement": 0,
  "combatLevelRecommended": 0
}